1000000;0.121969
11000000;0.245867
21000000;0.369426
31000000;0.499314
41000000;0.618773
51000000;0.739457
61000000;0.866801
71000000;0.989316
81000000;1.11954
91000000;1.24476
101000000;1.37159
111000000;1.48704
121000000;1.61329
131000000;1.73701
141000000;1.86612
151000000;2.00043
161000000;2.11863
171000000;2.24521
181000000;2.36913
191000000;2.49246
201000000;2.61643
211000000;2.74317
221000000;2.86511
231000000;2.97884
241000000;3.14215
251000000;3.23641
261000000;3.38647
271000000;3.49664
281000000;3.63168
291000000;3.74918
301000000;3.86432
311000000;3.98644
321000000;4.09014
331000000;4.24896
341000000;4.37214
351000000;4.51988
361000000;4.63267
371000000;4.96635
381000000;4.88771
391000000;4.98277
401000000;5.13486
411000000;5.24156
421000000;5.35239
431000000;5.4675
441000000;5.62823
451000000;5.76277
461000000;6.0531
471000000;5.99193
481000000;6.14061
491000000;6.27214
501000000;6.58987
511000000;6.52144
521000000;6.64642
531000000;6.78316
541000000;6.86215
551000000;7.24197
561000000;7.12528
571000000;7.22485
581000000;7.42719
591000000;7.48532
601000000;7.60986
611000000;7.73695
621000000;7.86178
631000000;7.98242
641000000;8.15025
651000000;8.24345
661000000;8.39853
671000000;8.53026
681000000;8.59254
691000000;8.73527
701000000;8.89938
711000000;9.29823
721000000;9.14221
731000000;9.37813
741000000;9.39925
751000000;9.55892
761000000;9.74125
771000000;9.76608
781000000;9.91713
791000000;9.95635
801000000;10.1321
811000000;10.2926
821000000;10.3879
831000000;10.8828
841000000;10.6784
851000000;10.7575
861000000;10.9085
871000000;11.3941
881000000;11.2127
891000000;11.3431
901000000;11.4138
911000000;11.6082
921000000;12.0878
931000000;11.7555
941000000;11.9054
951000000;12.023
961000000;12.5789
971000000;12.2501
981000000;12.4097
991000000;12.5313
